Jake Wittman - Messing around with XGBoost
…
Anyway, this is a lot of hyperparameters and we need to specify some numbers to try. Julia uses a latin hypercube, so we’ll go ahead and do the same.

xgb_grid <- grid_latin_hypercube(
   tree_depth(),
   min_n(),
   loss_reduction(),
   sample_size = sample_prop(),
   finalize(mtry(), wine_train),
   learn_rate(),
   size = 30
)

xgb_grid

# A tibble: 30 x 6
   tree_depth min_n loss_reduction sample_size  mtry learn_rate
        <int> <int>          <dbl>       <dbl> <int>      <dbl>
 1          5    36       1.12e- 5       0.525     9   3.76e- 7
 2          8    34       1.69e+ 0       0.952     4   5.20e- 2
 3          4    24       2.76e- 1       0.240    10   9.91e-10
 4         14    37       1.32e- 2       0.767     6   1.16e- 2
 5         11    32       2.05e- 3       0.926     5   9.37e- 4
 6         13    12       2.06e+ 1       0.725     5   7.40e- 8
 7          7    10       1.53e- 9       0.645    11   3.24e- 3
 8          3    16       3.59e- 7       0.257     4   2.10e- 9
 9         12     9       2.17e-10       0.551    12   1.19e-10
10         14    19       4.14e- 9       0.192     8   1.94e- 8
# ... with 20 more rows
…
